%YAML 1.1
%TAG !u! tag:unity3d.com,2011:
--- !u!1045 &1
EditorBuildSettings:
  m_ObjectHideFlags: 0
  serializedVersion: 2
  m_Scenes:
  - enabled: 1
    path: Assets/Scenes/MainMenu.unity
    guid: d76aa8eda71ad164bb8b97fe4c3bd3c1
  - enabled: 1
    path: Assets/Scenes/Game.unity
    guid: 5230841b8b7ab0a41bd759922fd28c22
  - enabled: 1
    path: Assets/Scenes/Boss.unity
    guid: 16edf7988adb06c498b34b63d5e728fe
  m_configObjects: {}
